{"count":8914,"next":"http://gutendex.com/books/?page=2&search=as","previous":null,"results":[{"id":46,"authors":[{"birth_year":1812,"death_year":1870,"name":"Dickens, Charles"}],"bookshelves":["Children's Literature","Christmas"],"copyright":false,"download_count":15946,"formats":{"application/x-mobipocket-ebook":"http://www.gutenberg.org/ebooks/46.kindle.images","text/plain; charset=iso-8859-1":"http://www.gutenberg.org/files/46/46-8.txt","text/plain":"http://www.gutenberg.org/ebooks/46.txt.utf-8","application/zip":"http://www.gutenberg.org/files/46/46-h.zip","text/plain; charset=us-ascii":"http://www.gutenberg.org/files/46/46.txt","text/html; charset=iso-8859-1":"http://www.gutenberg.org/files/46/46-h/46-h.htm","image/jpeg":"http://www.gutenberg.org/cache/epub/46/pg46.cover.small.jpg","application/rdf+xml":"http://www.gutenberg.org/ebooks/46.rdf","application/epub+zip":"http://www.gutenberg.org/ebooks/46.epub.images"},"languages":["en"],"media_type":"Text","subjects":["Christmas stories","Ghost stories","London (England) -- Fiction","Misers -- Fiction","Poor families -- Fiction","Scrooge, Ebenezer (Fictitious character) -- Fiction","Sick children -- Fiction"],"title":"A Christmas Carol in Prose; Being a Ghost Story of Christmas"},{"id":30254,"authors":[{"birth_year":null,"death_year":null,"name":"Anonymous"}],"bookshelves":[],"copyright":false,"download_count":10296,"formats":{"application/x-mobipocket-ebook":"http://www.gutenberg.org/ebooks/30254.kindle.images","text/plain; charset=utf-8":"http://www.gutenberg.org/files/30254/30254-0.txt","application/zip":"http://www.gutenberg.org/files/30254/30254-h.zip","application/rdf+xml":"http://www.gutenberg.org/ebooks/30254.rdf","application/epub+zip":"http://www.gutenberg.org/ebooks/30254.epub.images","text/html; charset=utf-8":"http://www.gutenberg.org/files/30254/30254-h/30254-h.htm"},"languages":["en"],"media_type":"Text","subjects":["Erotic stories"],"title":"The Romance of Lust: A Classic Victorian erotic novel"},{"id":1322,"authors":[{"birth_year":1819,"death_year":1892,"name":"Whitman, Walt"}],"bookshelves":["Banned Books from Anne Haight's list","Best Books Ever Listings","Poetry"],"copyright":false,"download_count":8401,"formats":{"application/x-mobipocket-ebook":"http://www.gutenberg.org/ebooks/1322.kindle.noimages","text/plain":"http://www.gutenberg.org/ebooks/1322.txt.utf-8","application/zip":"http://www.gutenberg.org/files/1322/1322.zip","text/plain; charset=us-ascii":"http://www.gutenberg.org/files/1322/1322.txt","text/html; charset=us-ascii":"http://www.gutenberg.org/files/1322/1322-h/1322-h.htm","application/rdf+xml":"http://www.gutenberg.org/ebooks/1322.rdf","application/epub+zip":"http://www.gutenberg.org/ebooks/1322.epub.noimages"},"languages":["en"],"media_type":"Text","subjects":["American poetry -- 19th century"],"title":"Leaves of Grass"},{"id":43,"authors":[{"birth_year":1850,"death_year":1894,"name":"Stevenson, Robert Louis"}],"bookshelves":["Horror","Movie Books","Precursors of Science Fiction"],"copyright":false,"download_count":7632,"formats":{"application/x-mobipocket-ebook":"http://www.gutenberg.org/ebooks/43.kindle.images","text/plain; charset=utf-8":"http://www.gutenberg.org/files/43/43-0.txt","application/zip":"http://www.gutenberg.org/files/43/43-h.zip","application/rdf+xml":"http://www.gutenberg.org/ebooks/43.rdf","application/epub+zip":"http://www.gutenberg.org/ebooks/43.epub.images","text/html; charset=utf-8":"http://www.gutenberg.org/files/43/43-h/43-h.htm"},"languages":["en"],"media_type":"Text","subjects":["Horror tales","London (England) -- Fiction","Multiple personality -- Fiction","Physicians -- Fiction","Psychological fiction","Science fiction","Self-experimentation in medicine -- Fiction"],"title":"The Strange Case of Dr. Jekyll and Mr. Hyde"},{"id":3207,"authors":[{"birth_year":1588,"death_year":1679,"name":"Hobbes, Thomas"}],"bookshelves":["Harvard Classics","Politics"],"copyright":false,"download_count":7281,"formats":{"application/x-mobipocket-ebook":"http://www.gutenberg.org/ebooks/3207.kindle.images","text/plain":"http://www.gutenberg.org/ebooks/3207.txt.utf-8","application/zip":"http://www.gutenberg.org/files/3207/3207.zip","text/plain; charset=us-ascii":"http://www.gutenberg.org/files/3207/3207.txt","text/html; charset=us-ascii":"http://www.gutenberg.org/files/3207/3207-h/3207-h.htm","application/rdf+xml":"http://www.gutenberg.org/ebooks/3207.rdf","application/epub+zip":"http://www.gutenberg.org/ebooks/3207.epub.noimages"},"languages":["en"],"media_type":"Text","subjects":["Political science -- Early works to 1800","State, The -- Early works to 1800"],"title":"Leviathan"},{"id":1184,"authors":[{"birth_year":1802,"death_year":1870,"name":"Dumas, Alexandre"}],"bookshelves":["Adventure","Movie Books"],"copyright":false,"download_count":6712,"formats":{"application/x-mobipocket-ebook":"http://www.gutenberg.org/ebooks/1184.kindle.noimages","text/plain; charset=utf-8":"http://www.gutenberg.org/files/1184/1184-0.zip","image/jpeg":"http://www.gutenberg.org/cache/epub/1184/pg1184.cover.medium.jpg","application/rdf+xml":"http://www.gutenberg.org/ebooks/1184.rdf","application/epub+zip":"http://www.gutenberg.org/ebooks/1184.epub.noimages","text/html; charset=utf-8":"http://www.gutenberg.org/files/1184/1184-h.zip"},"languages":["en"],"media_type":"Text","subjects":["Adventure stories","Dantès, Edmond (Fictitious character) -- Fiction","France -- History -- 19th century -- Fiction","Historical fiction","Pirates -- Fiction","Prisoners -- Fiction","Revenge -- Fiction"],"title":"The Count of Monte Cristo, Illustrated"},{"id":23,"authors":[{"birth_year":1818,"death_year":1895,"name":"Douglass, Frederick"}],"bookshelves":["African American Writers","Slavery"],"copyright":false,"download_count":6646,"formats":{"application/x-mobipocket-ebook":"http://www.gutenberg.org/ebooks/23.kindle.images","text/plain":"http://www.gutenberg.org/ebooks/23.txt.utf-8","text/plain; charset=us-ascii":"http://www.gutenberg.org/files/23/23.txt","text/html; charset=us-ascii":"http://www.gutenberg.org/files/23/23-h/23-h.htm","application/rdf+xml":"http://www.gutenberg.org/ebooks/23.rdf","application/epub+zip":"http://www.gutenberg.org/ebooks/23.epub.noimages"},"languages":["en"],"media_type":"Text","subjects":["Abolitionists -- United States -- Biography","African American abolitionists -- Biography","Douglass, Frederick, 1818-1895","Slaves -- United States -- Biography"],"title":"Narrative of the Life of Frederick Douglass, an American Slave"},{"id":120,"authors":[{"birth_year":1850,"death_year":1894,"name":"Stevenson, Robert Louis"}],"bookshelves":["Best Books Ever Listings","Children's Literature","Historical Fiction","Pirates, Buccaneers, Corsairs, etc."],"copyright":false,"download_count":6607,"formats":{"application/x-mobipocket-ebook":"http://www.gutenberg.org/ebooks/120.kindle.noimages","text/plain":"http://www.gutenberg.org/ebooks/120.txt.utf-8","application/zip":"http://www.gutenberg.org/files/120/120-h.zip","text/plain; charset=us-ascii":"http://www.gutenberg.org/files/120/120.zip","text/html; charset=us-ascii":"http://www.gutenberg.org/files/120/120-h/120-h.htm","image/jpeg":"http://www.gutenberg.org/cache/epub/120/pg120.cover.medium.jpg","application/rdf+xml":"http://www.gutenberg.org/ebooks/120.rdf","application/epub+zip":"http://www.gutenberg.org/ebooks/120.epub.noimages"},"languages":["en"],"media_type":"Text","subjects":["Pirates -- Fiction","Sea stories","Treasure Island (Imaginary place) -- Fiction","Treasure troves -- Fiction"],"title":"Treasure Island"},{"id":2852,"authors":[{"birth_year":1859,"death_year":1930,"name":"Doyle, Arthur Conan"}],"bookshelves":["Bestsellers, American, 1895-1923","Detective Fiction"],"copyright":false,"download_count":5483,"formats":{"application/x-mobipocket-ebook":"http://www.gutenberg.org/ebooks/2852.kindle.noimages","text/plain; charset=utf-8":"http://www.gutenberg.org/files/2852/2852-0.zip","application/zip":"http://www.gutenberg.org/files/2852/2852-h.zip","text/plain; charset=us-ascii":"http://www.gutenberg.org/files/2852/2852.zip","application/rdf+xml":"http://www.gutenberg.org/ebooks/2852.rdf","application/epub+zip":"http://www.gutenberg.org/ebooks/2852.epub.images","text/html; charset=utf-8":"http://www.gutenberg.org/files/2852/2852-h/2852-h.htm"},"languages":["en"],"media_type":"Text","subjects":["Blessing and cursing -- Fiction","Dartmoor (England) -- Fiction","Detective and mystery stories","Dogs -- Fiction","Holmes, Sherlock (Fictitious character) -- Fiction","Private investigators -- England -- Fiction"],"title":"The Hound of the Baskervilles"},{"id":147,"authors":[{"birth_year":1737,"death_year":1809,"name":"Paine, Thomas"}],"bookshelves":[],"copyright":false,"download_count":4954,"formats":{"application/x-mobipocket-ebook":"http://www.gutenberg.org/ebooks/147.kindle.noimages","text/plain":"http://www.gutenberg.org/ebooks/147.txt.utf-8","text/plain; charset=us-ascii":"http://www.gutenberg.org/files/147/147-0.zip","text/html; charset=iso-8859-1":"http://www.gutenberg.org/files/147/147-h.zip","image/jpeg":"http://www.gutenberg.org/cache/epub/147/pg147.cover.small.jpg","application/rdf+xml":"http://www.gutenberg.org/ebooks/147.rdf","application/epub+zip":"http://www.gutenberg.org/ebooks/147.epub.noimages"},"languages":["en"],"media_type":"Text","subjects":["Monarchy -- Early works to 1800","Political science -- Early works to 1800","United States -- Politics and government -- 1775-1783"],"title":"Common Sense"},{"id":41,"authors":[{"birth_year":1783,"death_year":1859,"name":"Irving, Washington"}],"bookshelves":["Children's Literature","Harvard Classics"],"copyright":false,"download_count":4506,"formats":{"application/x-mobipocket-ebook":"http://www.gutenberg.org/ebooks/41.kindle.noimages","text/plain; charset=utf-8":"http://www.gutenberg.org/files/41/41-0.txt","text/plain; charset=iso-8859-1":"http://www.gutenberg.org/files/41/41-8.txt","application/zip":"http://www.gutenberg.org/files/41/41.zip","text/plain; charset=us-ascii":"http://www.gutenberg.org/files/41/41.txt","text/html; charset=iso-8859-1":"http://www.gutenberg.org/files/41/41-h/41-h.htm","application/rdf+xml":"http://www.gutenberg.org/ebooks/41.rdf","application/epub+zip":"http://www.gutenberg.org/ebooks/41.epub.noimages"},"languages":["en"],"media_type":"Text","subjects":["Ghosts -- Fiction","New York (State) -- History -- 1775-1865 -- Fiction"],"title":"The Legend of Sleepy Hollow"},{"id":28520,"authors":[{"birth_year":null,"death_year":null,"name":"Anonymous"}],"bookshelves":[],"copyright":false,"download_count":3991,"formats":{"application/x-mobipocket-ebook":"http://www.gutenberg.org/ebooks/28520.kindle.noimages","text/plain":"http://www.gutenberg.org/ebooks/28520.txt.utf-8","text/plain; charset=us-ascii":"http://www.gutenberg.org/files/28520/28520.txt","text/html":"http://www.gutenberg.org/ebooks/28520.html.images","application/rdf+xml":"http://www.gutenberg.org/ebooks/28520.rdf","application/epub+zip":"http://www.gutenberg.org/ebooks/28520.epub.images"},"languages":["en"],"media_type":"Text","subjects":["Erotic stories"],"title":"Forbidden Fruit: Luscious and exciting story and More forbidden fruit or; Master Percy's progress in and beyond the domestic circle"},{"id":42,"authors":[{"birth_year":1850,"death_year":1894,"name":"Stevenson, Robert Louis"}],"bookshelves":["Gothic Fiction","Horror","Movie Books","Precursors of Science Fiction"],"copyright":false,"download_count":3886,"formats":{"application/x-mobipocket-ebook":"http://www.gutenberg.org/ebooks/42.kindle.images","text/html":"http://www.gutenberg.org/ebooks/42.html.noimages","application/zip":"http://www.gutenberg.org/files/42/42.zip","text/plain; charset=us-ascii":"http://www.gutenberg.org/files/42/42.txt","text/plain":"http://www.gutenberg.org/ebooks/42.txt.utf-8","application/rdf+xml":"http://www.gutenberg.org/ebooks/42.rdf","application/epub+zip":"http://www.gutenberg.org/ebooks/42.epub.images"},"languages":["en"],"media_type":"Text","subjects":["Horror tales","London (England) -- Fiction","Multiple personality -- Fiction","Physicians -- Fiction","Psychological fiction","Science fiction","Self-experimentation in medicine -- Fiction"],"title":"The Strange Case of Dr. Jekyll and Mr. Hyde"},{"id":1251,"authors":[{"birth_year":null,"death_year":1471,"name":"Malory, Thomas, Sir"}],"bookshelves":["Arthurian Legends","Fantasy"],"copyright":false,"download_count":3377,"formats":{"application/x-mobipocket-ebook":"http://www.gutenberg.org/ebooks/1251.kindle.images","text/plain":"http://www.gutenberg.org/ebooks/1251.txt.utf-8","application/zip":"http://www.gutenberg.org/files/1251/1251-h.zip","text/plain; charset=us-ascii":"http://www.gutenberg.org/files/1251/1251.txt","text/html; charset=us-ascii":"http://www.gutenberg.org/files/1251/1251-h/1251-h.htm","application/rdf+xml":"http://www.gutenberg.org/ebooks/1251.rdf","application/epub+zip":"http://www.gutenberg.org/ebooks/1251.epub.images"},"languages":["en"],"media_type":"Text","subjects":["Arthur, King -- Legends","Arthurian romances"],"title":"Le Morte d'Arthur: Volume 1"},{"id":33283,"authors":[{"birth_year":1851,"death_year":1916,"name":"Thompson, Silvanus P. (Silvanus Phillips)"}],"bookshelves":["Mathematics"],"copyright":false,"download_count":3370,"formats":{"application/zip":"http://www.gutenberg.org/files/33283/33283-t.zip","application/pdf":"http://www.gutenberg.org/files/33283/33283-pdf.pdf","application/prs.tex":"http://www.gutenberg.org/files/33283/33283-t/33283-t.tex","application/rdf+xml":"http://www.gutenberg.org/ebooks/33283.rdf"},"languages":["en"],"media_type":"Text","subjects":["Calculus"],"title":"Calculus Made Easy: Being a very-simplest introduction to those beautiful methods which are generally called by the terrifying names of the Differential Calculus and the Integral Calculus"},{"id":105,"authors":[{"birth_year":1775,"death_year":1817,"name":"Austen, Jane"}],"bookshelves":[],"copyright":false,"download_count":3314,"formats":{"application/x-mobipocket-ebook":"http://www.gutenberg.org/ebooks/105.kindle.images","text/plain; charset=iso-8859-1":"http://www.gutenberg.org/files/105/105-8.zip","text/plain":"http://www.gutenberg.org/ebooks/105.txt.utf-8","application/zip":"http://www.gutenberg.org/files/105/105-h.zip","text/plain; charset=us-ascii":"http://www.gutenberg.org/files/105/105.txt","text/html; charset=iso-8859-1":"http://www.gutenberg.org/files/105/105-h/105-h.htm","application/rdf+xml":"http://www.gutenberg.org/ebooks/105.rdf","application/epub+zip":"http://www.gutenberg.org/ebooks/105.epub.images"},"languages":["en"],"media_type":"Text","subjects":["Dysfunctional families -- Fiction","England -- Social life and customs -- 19th century -- Fiction","First loves -- Fiction","Love stories","Motherless families -- Fiction","Psychological fiction","Regency fiction","Rejection (Psychology) -- Fiction","Ship captains -- Fiction","Young women -- Fiction"],"title":"Persuasion"},{"id":12,"authors":[{"birth_year":1832,"death_year":1898,"name":"Carroll, Lewis"}],"bookshelves":["Best Books Ever Listings","Children's Literature"],"copyright":false,"download_count":3214,"formats":{"application/x-mobipocket-ebook":"http://www.gutenberg.org/ebooks/12.kindle.images","text/plain; charset=utf-8":"http://www.gutenberg.org/files/12/12-0.txt","application/zip":"http://www.gutenberg.org/files/12/12-0.zip","text/plain; charset=us-ascii":"http://www.gutenberg.org/files/12/12.txt","application/rdf+xml":"http://www.gutenberg.org/ebooks/12.rdf","application/epub+zip":"http://www.gutenberg.org/ebooks/12.epub.noimages","text/html; charset=utf-8":"http://www.gutenberg.org/files/12/12-h/12-h.htm"},"languages":["en"],"media_type":"Text","subjects":["Fantasy literature"],"title":"Through the Looking-Glass"},{"id":15399,"authors":[{"birth_year":1745,"death_year":1797,"name":"Equiano, Olaudah"}],"bookshelves":["Africa"],"copyright":false,"download_count":2902,"formats":{"application/x-mobipocket-ebook":"http://www.gutenberg.org/ebooks/15399.kindle.noimages","text/plain; charset=iso-8859-1":"http://www.gutenberg.org/files/15399/15399-8.zip","text/plain":"http://www.gutenberg.org/ebooks/15399.txt.utf-8","application/zip":"http://www.gutenberg.org/files/15399/15399.zip","text/plain; charset=us-ascii":"http://www.gutenberg.org/files/15399/15399.txt","text/html; charset=iso-8859-1":"http://www.gutenberg.org/files/15399/15399-h/15399-h.htm","application/rdf+xml":"http://www.gutenberg.org/ebooks/15399.rdf","application/epub+zip":"http://www.gutenberg.org/ebooks/15399.epub.images"},"languages":["en"],"media_type":"Text","subjects":["Equiano, Olaudah, 1745-1797","Slaves -- Great Britain -- Biography","Slaves -- United States -- Biography"],"title":"The Interesting Narrative of the Life of Olaudah Equiano, Or Gustavus Vassa, The African: Written By Himself"},{"id":14975,"authors":[{"birth_year":1862,"death_year":1931,"name":"Wells-Barnett, Ida B."}],"bookshelves":["African American Writers","Crime Nonfiction"],"copyright":false,"download_count":2539,"formats":{"application/x-mobipocket-ebook":"http://www.gutenberg.org/ebooks/14975.kindle.noimages","text/plain":"http://www.gutenberg.org/ebooks/14975.txt.utf-8","application/zip":"http://www.gutenberg.org/files/14975/14975-h.zip","text/plain; charset=us-ascii":"http://www.gutenberg.org/files/14975/14975.txt","text/html; charset=us-ascii":"http://www.gutenberg.org/files/14975/14975-h/14975-h.htm","image/jpeg":"http://www.gutenberg.org/cache/epub/14975/pg14975.cover.medium.jpg","application/rdf+xml":"http://www.gutenberg.org/ebooks/14975.rdf","application/epub+zip":"http://www.gutenberg.org/ebooks/14975.epub.images"},"languages":["en"],"media_type":"Text","subjects":["Lynching"],"title":"Southern Horrors: Lynch Law in All Its Phases"},{"id":3090,"authors":[{"birth_year":1850,"death_year":1893,"name":"Maupassant, Guy de"}],"bookshelves":[],"copyright":false,"download_count":2454,"formats":{"application/x-mobipocket-ebook":"http://www.gutenberg.org/ebooks/3090.kindle.noimages","text/plain; charset=utf-8":"http://www.gutenberg.org/files/3090/3090-0.txt","application/zip":"http://www.gutenberg.org/files/3090/3090-0.zip","text/plain; charset=us-ascii":"http://www.gutenberg.org/files/3090/3090.zip","application/rdf+xml":"http://www.gutenberg.org/ebooks/3090.rdf","application/epub+zip":"http://www.gutenberg.org/ebooks/3090.epub.images","text/html; charset=utf-8":"http://www.gutenberg.org/files/3090/3090-h/3090-h.htm"},"languages":["en"],"media_type":"Text","subjects":["French fiction -- Translations into English","Short stories, French -- Translations into English"],"title":"Complete Original Short Stories of Guy De Maupassant"},{"id":2130,"authors":[{"birth_year":1478,"death_year":1535,"name":"More, Thomas, Saint"}],"bookshelves":["Harvard Classics","Politics"],"copyright":false,"download_count":2437,"formats":{"application/x-mobipocket-ebook":"http://www.gutenberg.org/ebooks/2130.kindle.images","text/html":"http://www.gutenberg.org/files/2130/2130-h/2130-h.htm","text/plain; charset=us-ascii":"http://www.gutenberg.org/files/2130/2130.zip","text/plain":"http://www.gutenberg.org/ebooks/2130.txt.utf-8","application/rdf+xml":"http://www.gutenberg.org/ebooks/2130.rdf","application/epub+zip":"http://www.gutenberg.org/ebooks/2130.epub.images"},"languages":["en"],"media_type":"Text","subjects":["Utopias -- Early works to 1800"],"title":"Utopia"},{"id":38427,"authors":[{"birth_year":1788,"death_year":1860,"name":"Schopenhauer, Arthur"}],"bookshelves":[],"copyright":false,"download_count":2421,"formats":{"application/x-mobipocket-ebook":"http://www.gutenberg.org/ebooks/38427.kindle.images","text/plain; charset=utf-8":"http://www.gutenberg.org/files/38427/38427-0.txt","text/plain; charset=iso-8859-1":"http://www.gutenberg.org/files/38427/38427-8.txt","application/pdf":"http://www.gutenberg.org/files/38427/38427-pdf.pdf","application/zip":"http://www.gutenberg.org/files/38427/38427-8.zip","text/plain; charset=us-ascii":"http://www.gutenberg.org/files/38427/38427.txt","application/prs.tei":"http://www.gutenberg.org/files/38427/38427-tei/38427-tei.tei","application/rdf+xml":"http://www.gutenberg.org/ebooks/38427.rdf","application/epub+zip":"http://www.gutenberg.org/ebooks/38427.epub.images","text/html; charset=utf-8":"http://www.gutenberg.org/files/38427/38427-h/38427-h.html"},"languages":["en"],"media_type":"Text","subjects":["Idea (Philosophy)","Knowledge, Theory of","Philosophy","Will"],"title":"The World as Will and Idea (Vol. 1 of 3)"},{"id":1257,"authors":[{"birth_year":1802,"death_year":1870,"name":"Dumas, Alexandre"}],"bookshelves":["Adventure","Best Books Ever Listings","Historical Fiction","Movie Books"],"copyright":false,"download_count":2317,"formats":{"application/x-mobipocket-ebook":"http://www.gutenberg.org/ebooks/1257.kindle.noimages","text/plain; charset=utf-8":"http://www.gutenberg.org/files/1257/1257-0.txt","text/plain; charset=iso-8859-1":"http://www.gutenberg.org/files/1257/1257-8.txt","text/x-rst":"http://www.gutenberg.org/files/1257/1257-rst/1257-rst.rst","application/zip":"http://www.gutenberg.org/files/1257/1257-h.zip","text/plain; charset=us-ascii":"http://www.gutenberg.org/files/1257/1257.txt","application/rdf+xml":"http://www.gutenberg.org/ebooks/1257.rdf","application/epub+zip":"http://www.gutenberg.org/ebooks/1257.epub.noimages","text/html; charset=utf-8":"http://www.gutenberg.org/files/1257/1257-h/1257-h.htm"},"languages":["en"],"media_type":"Text","subjects":["Adventure and adventurers -- Fiction","France -- History -- Louis XIII, 1610-1643 -- Fiction","Historical fiction","Swordsmen -- Fiction"],"title":"The Three Musketeers"},{"id":696,"authors":[{"birth_year":1717,"death_year":1797,"name":"Walpole, Horace"}],"bookshelves":["Gothic Fiction"],"copyright":false,"download_count":2153,"formats":{"application/x-mobipocket-ebook":"http://www.gutenberg.org/ebooks/696.kindle.images","text/plain; charset=utf-8":"http://www.gutenberg.org/files/696/696-0.txt","text/html":"http://www.gutenberg.org/files/696/696-h/696-h.htm","application/zip":"http://www.gutenberg.org/files/696/696-h.zip","application/rdf+xml":"http://www.gutenberg.org/ebooks/696.rdf","application/epub+zip":"http://www.gutenberg.org/ebooks/696.epub.images"},"languages":["en"],"media_type":"Text","subjects":["Gothic fiction (Literary genre)","Horror tales","Inheritance and succession -- Fiction"],"title":"The Castle of Otranto"},{"id":4280,"authors":[{"birth_year":1724,"death_year":1804,"name":"Kant, Immanuel"}],"bookshelves":["Philosophy"],"copyright":false,"download_count":2126,"formats":{"application/x-mobipocket-ebook":"http://www.gutenberg.org/ebooks/4280.kindle.noimages","text/plain":"http://www.gutenberg.org/ebooks/4280.txt.utf-8","text/plain; charset=us-ascii":"http://www.gutenberg.org/files/4280/4280.txt","text/html; charset=us-ascii":"http://www.gutenberg.org/files/4280/4280-h.zip","application/rdf+xml":"http://www.gutenberg.org/ebooks/4280.rdf","application/epub+zip":"http://www.gutenberg.org/ebooks/4280.epub.images"},"languages":["en"],"media_type":"Text","subjects":["Causation","Knowledge, Theory of","Philosophy, German","Reason"],"title":"The Critique of Pure Reason"},{"id":4217,"authors":[{"birth_year":1882,"death_year":1941,"name":"Joyce, James"}],"bookshelves":[],"copyright":false,"download_count":2050,"formats":{"application/x-mobipocket-ebook":"http://www.gutenberg.org/ebooks/4217.kindle.images","text/plain; charset=utf-8":"http://www.gutenberg.org/files/4217/4217-0.zip","application/zip":"http://www.gutenberg.org/files/4217/4217-h.zip","text/html; charset=iso-8859-1":"http://www.gutenberg.org/files/4217/4217-h/4217-h.htm","application/rdf+xml":"http://www.gutenberg.org/ebooks/4217.rdf","application/epub+zip":"http://www.gutenberg.org/ebooks/4217.epub.noimages"},"languages":["en"],"media_type":"Text","subjects":["Artists -- Fiction","Autobiographical fiction","Bildungsromans","Dublin (Ireland) -- Fiction","Young men -- Fiction"],"title":"A Portrait of the Artist as a Young Man"},{"id":4276,"authors":[{"birth_year":1810,"death_year":1865,"name":"Gaskell, Elizabeth Cleghorn"}],"bookshelves":[],"copyright":false,"download_count":2034,"formats":{"application/x-mobipocket-ebook":"http://www.gutenberg.org/ebooks/4276.kindle.noimages","text/plain":"http://www.gutenberg.org/ebooks/4276.txt.utf-8","text/plain; charset=us-ascii":"http://www.gutenberg.org/files/4276/4276.txt","text/html; charset=iso-8859-1":"http://www.gutenberg.org/files/4276/4276-h/4276-h.htm","application/rdf+xml":"http://www.gutenberg.org/ebooks/4276.rdf","application/epub+zip":"http://www.gutenberg.org/ebooks/4276.epub.noimages"},"languages":["en"],"media_type":"Text","subjects":["Bildungsromans","Children of clergy -- Fiction","Didactic fiction","England, Northern -- Fiction","Mothers and daughters -- Fiction","Social classes -- Fiction","Young women -- Fiction"],"title":"North and South"},{"id":19337,"authors":[{"birth_year":1812,"death_year":1870,"name":"Dickens, Charles"}],"bookshelves":["Children's Literature","Christmas"],"copyright":false,"download_count":1914,"formats":{"application/x-mobipocket-ebook":"http://www.gutenberg.org/ebooks/19337.kindle.noimages","text/plain; charset=iso-8859-1":"http://www.gutenberg.org/files/19337/19337-8.txt","text/plain":"http://www.gutenberg.org/ebooks/19337.txt.utf-8","application/zip":"http://www.gutenberg.org/files/19337/19337-8.zip","text/plain; charset=us-ascii":"http://www.gutenberg.org/files/19337/19337.txt","text/html; charset=iso-8859-1":"http://www.gutenberg.org/files/19337/19337-h/19337-h.htm","application/rdf+xml":"http://www.gutenberg.org/ebooks/19337.rdf","application/epub+zip":"http://www.gutenberg.org/ebooks/19337.epub.images"},"languages":["en"],"media_type":"Text","subjects":["Christmas stories","Ghost stories","London (England) -- Fiction","Misers -- Fiction","Poor families -- Fiction","Scrooge, Ebenezer (Fictitious character) -- Fiction","Sick children -- Fiction"],"title":"A Christmas Carol"},{"id":15845,"authors":[{"birth_year":1788,"death_year":1862,"name":"Balagtas, Francisco"}],"bookshelves":[],"copyright":false,"download_count":1898,"formats":{"text/plain; charset=iso-8859-1":"http://www.gutenberg.org/files/15845/15845-8.txt","application/rdf+xml":"http://www.gutenberg.org/ebooks/15845.rdf","text/html; charset=iso-8859-1":"http://www.gutenberg.org/files/15845/15845-h/15845-h.htm","application/epub+zip":"http://www.gutenberg.org/ebooks/15845.epub.noimages","text/plain":"http://www.gutenberg.org/ebooks/15845.txt.utf-8"},"languages":["tl"],"media_type":"Text","subjects":["Tagalog poetry"],"title":"Florante at Laura"},{"id":10623,"authors":[{"birth_year":1876,"death_year":1948,"name":"Glaspell, Susan"}],"bookshelves":["One Act Plays"],"copyright":false,"download_count":1765,"formats":{"application/x-mobipocket-ebook":"http://www.gutenberg.org/ebooks/10623.kindle.images","text/plain; charset=iso-8859-1":"http://www.gutenberg.org/files/10623/10623-8.txt","text/plain":"http://www.gutenberg.org/ebooks/10623.txt.utf-8","application/zip":"http://www.gutenberg.org/files/10623/10623.zip","text/plain; charset=us-ascii":"http://www.gutenberg.org/files/10623/10623.txt","text/html; charset=iso-8859-1":"http://www.gutenberg.org/files/10623/10623-h/10623-h.htm","application/rdf+xml":"http://www.gutenberg.org/ebooks/10623.rdf","application/epub+zip":"http://www.gutenberg.org/ebooks/10623.epub.noimages"},"languages":["en"],"media_type":"Text","subjects":["American drama"],"title":"Plays"},{"id":45631,"authors":[{"birth_year":1808,"death_year":null,"name":"Northup, Solomon"}],"bookshelves":[],"copyright":false,"download_count":1697,"formats":{"application/x-mobipocket-ebook":"http://www.gutenberg.org/ebooks/45631.kindle.noimages","text/plain; charset=iso-8859-1":"http://www.gutenberg.org/files/45631/45631-8.txt","text/plain":"http://www.gutenberg.org/ebooks/45631.txt.utf-8","application/zip":"http://www.gutenberg.org/files/45631/45631-h.zip","text/plain; charset=us-ascii":"http://www.gutenberg.org/files/45631/45631.txt","text/html; charset=iso-8859-1":"http://www.gutenberg.org/files/45631/45631-h/45631-h.htm","image/jpeg":"http://www.gutenberg.org/cache/epub/45631/pg45631.cover.medium.jpg","application/rdf+xml":"http://www.gutenberg.org/ebooks/45631.rdf","application/epub+zip":"http://www.gutenberg.org/ebooks/45631.epub.noimages"},"languages":["en"],"media_type":"Text","subjects":["African Americans -- Biography","Northup, Solomon, 1808-1863?","Plantation life -- Louisiana -- History -- 19th century","Slavery -- Louisiana -- History -- 19th century","Slaves -- United States -- Biography","Slaves' writings, American"],"title":"Twelve Years a Slave: Narrative of Solomon Northup, a Citizen of New-York, Kidnapped in Washington City in 1841, and Rescued in 1853, from a Cotton Plantation near the Red River in Louisiana"},{"id":18269,"authors":[{"birth_year":1623,"death_year":1662,"name":"Pascal, Blaise"}],"bookshelves":["Banned Books from Anne Haight's list","Harvard Classics"],"copyright":false,"download_count":1691,"formats":{"application/x-mobipocket-ebook":"http://www.gutenberg.org/ebooks/18269.kindle.noimages","text/plain; charset=utf-8":"http://www.gutenberg.org/files/18269/18269-0.txt","text/plain; charset=iso-8859-1":"http://www.gutenberg.org/files/18269/18269-8.zip","application/zip":"http://www.gutenberg.org/files/18269/18269-0.zip","text/plain; charset=us-ascii":"http://www.gutenberg.org/files/18269/18269.txt","application/rdf+xml":"http://www.gutenberg.org/ebooks/18269.rdf","application/epub+zip":"http://www.gutenberg.org/ebooks/18269.epub.images","text/html; charset=utf-8":"http://www.gutenberg.org/files/18269/18269-h/18269-h.htm"},"languages":["en"],"media_type":"Text","subjects":["Apologetics","Philosophy"],"title":"Pascal's Pensées"}]}